car by city api -: November 17, 2017, 7:20 pm
Response: {"result":1,"msg":"9259.8569812","details":{"ride_id":"613","user_id":"33","coupon_code":"","pickup_lat":"-33.89716393755359","pickup_long":"18.628418035805225","pickup_location":"4 Alexandra St, Oakdale, Cape Town, 7530, South Africa","drop_lat":"-33.924157699999995","drop_long":"18.454311299999997","drop_location":"Woodstock","ride_date":"Friday, Nov 17","ride_time":"19:20:09","last_time_stamp":"07:20:09 PM","ride_image":"https:maps.googleapis.com\/maps\/api\/staticmap?center=&zoom=12&size=200x200&maptype=roadmap&markers=color:green|label:S|-33.89716393755359,18.628418035805225&markers=color:red|label:D|-33.924157699999995,18.454311299999997&key=AIzaSyAIFe17P91Mfez3T6cqk7hfDSyvMO812Z4","later_date":"","later_time":"","driver_id":"0","car_type_id":"28","checkout_id":"","ride_type":"1","pem_file":"1","ride_status":"1","payment_status":"0","reason_id":"0","payment_option_id":"1","card_id":"0","ride_platform":"1","ride_admin_status":"1","date":"2017-11-17"}}
drop_lat: -33.924157699999995
drop_long: 18.454311299999997
drop_location: Woodstock
car_type_id:28
user_id:33
coupon_code :
pickup_lat : -33.89716393755359
pickup_long : 18.628418035805225
pickup_location :4 Alexandra St, Oakdale, Cape Town, 7530, South Africa
payment_option_id :1
card_id :
pem_file :1
-------------------------
car by city api -: November 17, 2017, 7:21 pm
Response: {"result":1,"msg":"9259.8569812","details":{"ride_id":"614","user_id":"33","coupon_code":"","pickup_lat":"-33.89716393755359","pickup_long":"18.628418035805225","pickup_location":"4 Alexandra St, Oakdale, Cape Town, 7530, South Africa","drop_lat":"-33.924157699999995","drop_long":"18.454311299999997","drop_location":"Woodstock","ride_date":"Friday, Nov 17","ride_time":"19:21:06","last_time_stamp":"07:21:06 PM","ride_image":"https:maps.googleapis.com\/maps\/api\/staticmap?center=&zoom=12&size=200x200&maptype=roadmap&markers=color:green|label:S|-33.89716393755359,18.628418035805225&markers=color:red|label:D|-33.924157699999995,18.454311299999997&key=AIzaSyAIFe17P91Mfez3T6cqk7hfDSyvMO812Z4","later_date":"","later_time":"","driver_id":"0","car_type_id":"28","checkout_id":"","ride_type":"1","pem_file":"1","ride_status":"1","payment_status":"0","reason_id":"0","payment_option_id":"1","card_id":"0","ride_platform":"1","ride_admin_status":"1","date":"2017-11-17"}}
drop_lat: -33.924157699999995
drop_long: 18.454311299999997
drop_location: Woodstock
car_type_id:28
user_id:33
coupon_code :
pickup_lat : -33.89716393755359
pickup_long : 18.628418035805225
pickup_location :4 Alexandra St, Oakdale, Cape Town, 7530, South Africa
payment_option_id :1
card_id :
pem_file :1
-------------------------
car by city api -: November 17, 2017, 7:23 pm
Response: {"result":1,"msg":"9259.82763678","details":{"ride_id":"615","user_id":"33","coupon_code":"","pickup_lat":"-33.896947703960286","pickup_long":"18.628612831234932","pickup_location":"4 Alexandra St, Oakdale, Cape Town, 7530, South Africa","drop_lat":"-33.924868499999995","drop_long":"18.4240553","drop_location":"Cape Town","ride_date":"Friday, Nov 17","ride_time":"19:23:30","last_time_stamp":"07:23:30 PM","ride_image":"https:maps.googleapis.com\/maps\/api\/staticmap?center=&zoom=12&size=200x200&maptype=roadmap&markers=color:green|label:S|-33.896947703960286,18.628612831234932&markers=color:red|label:D|-33.924868499999995,18.4240553&key=AIzaSyAIFe17P91Mfez3T6cqk7hfDSyvMO812Z4","later_date":"","later_time":"","driver_id":"0","car_type_id":"28","checkout_id":"","ride_type":"1","pem_file":"1","ride_status":"1","payment_status":"0","reason_id":"0","payment_option_id":"1","card_id":"0","ride_platform":"1","ride_admin_status":"1","date":"2017-11-17"}}
drop_lat: -33.924868499999995
drop_long: 18.4240553
drop_location: Cape Town
car_type_id:28
user_id:33
coupon_code :
pickup_lat : -33.896947703960286
pickup_long : 18.628612831234932
pickup_location :4 Alexandra St, Oakdale, Cape Town, 7530, South Africa
payment_option_id :1
card_id :
pem_file :1
-------------------------
car by city api -: November 17, 2017, 7:25 pm
Response: {"result":1,"msg":"9259.8175759","details":{"ride_id":"616","user_id":"33","coupon_code":"","pickup_lat":"-33.897071822666476","pickup_long":"18.62888742238283","pickup_location":"100 Durban Rd, Oakdale, Cape Town, 7530, South Africa","drop_lat":"-33.924868499999995","drop_long":"18.4240553","drop_location":"Cape Town","ride_date":"Friday, Nov 17","ride_time":"19:25:12","last_time_stamp":"07:25:12 PM","ride_image":"https:maps.googleapis.com\/maps\/api\/staticmap?center=&zoom=12&size=200x200&maptype=roadmap&markers=color:green|label:S|-33.897071822666476,18.62888742238283&markers=color:red|label:D|-33.924868499999995,18.4240553&key=AIzaSyAIFe17P91Mfez3T6cqk7hfDSyvMO812Z4","later_date":"","later_time":"","driver_id":"0","car_type_id":"28","checkout_id":"","ride_type":"1","pem_file":"1","ride_status":"1","payment_status":"0","reason_id":"0","payment_option_id":"1","card_id":"0","ride_platform":"1","ride_admin_status":"1","date":"2017-11-17"}}
drop_lat: -33.924868499999995
drop_long: 18.4240553
drop_location: Cape Town
car_type_id:28
user_id:33
coupon_code :
pickup_lat : -33.897071822666476
pickup_long : 18.62888742238283
pickup_location :100 Durban Rd, Oakdale, Cape Town, 7530, South Africa
payment_option_id :1
card_id :
pem_file :1
-------------------------
car by city api -: November 17, 2017, 7:31 pm
Response: {"result":1,"msg":"9259.83765399","details":{"ride_id":"617","user_id":"33","coupon_code":"","pickup_lat":"-33.89708879852928","pickup_long":"18.628616854548454","pickup_location":"4 Alexandra St, Oakdale, Cape Town, 7530, South Africa","drop_lat":"","drop_long":"","drop_location":"Set your drop point","ride_date":"Friday, Nov 17","ride_time":"19:31:53","last_time_stamp":"07:31:53 PM","ride_image":"https:maps.googleapis.com\/maps\/api\/staticmap?center=&zoom=12&size=200x200&maptype=roadmap&markers=color:green|label:S|-33.89708879852928,18.628616854548454&markers=color:red|label:D|,&key=AIzaSyAIFe17P91Mfez3T6cqk7hfDSyvMO812Z4","later_date":"","later_time":"","driver_id":"0","car_type_id":"28","checkout_id":"","ride_type":"1","pem_file":"1","ride_status":"1","payment_status":"0","reason_id":"0","payment_option_id":"1","card_id":"0","ride_platform":"1","ride_admin_status":"1","date":"2017-11-17"}}
drop_lat: 
drop_long: 
drop_location: Set your drop point
car_type_id:28
user_id:33
coupon_code :
pickup_lat : -33.89708879852928
pickup_long : 18.628616854548454
pickup_location :4 Alexandra St, Oakdale, Cape Town, 7530, South Africa
payment_option_id :1
card_id :
pem_file :1
-------------------------
car by city api -: November 17, 2017, 9:41 pm
Response: {"result":1,"msg":"9259.83765399","details":{"ride_id":"618","user_id":"33","coupon_code":"","pickup_lat":"-33.89708879852928","pickup_long":"18.628616854548454","pickup_location":"4 Alexandra St, Oakdale, Cape Town, 7530, South Africa","drop_lat":"","drop_long":"","drop_location":"Set your drop point","ride_date":"Friday, Nov 17","ride_time":"21:41:17","last_time_stamp":"09:41:17 PM","ride_image":"https:maps.googleapis.com\/maps\/api\/staticmap?center=&zoom=12&size=200x200&maptype=roadmap&markers=color:green|label:S|-33.89708879852928,18.628616854548454&markers=color:red|label:D|,&key=AIzaSyAIFe17P91Mfez3T6cqk7hfDSyvMO812Z4","later_date":"","later_time":"","driver_id":"0","car_type_id":"28","checkout_id":"","ride_type":"1","pem_file":"1","ride_status":"1","payment_status":"0","reason_id":"0","payment_option_id":"1","card_id":"0","ride_platform":"1","ride_admin_status":"1","date":"2017-11-17"}}
drop_lat: 
drop_long: 
drop_location: Set your drop point
car_type_id:28
user_id:33
coupon_code :
pickup_lat : -33.89708879852928
pickup_long : 18.628616854548454
pickup_location :4 Alexandra St, Oakdale, Cape Town, 7530, South Africa
payment_option_id :1
card_id :
pem_file :1
-------------------------
car by city api -: November 17, 2017, 9:42 pm
Response: {"result":1,"msg":"9259.83765399","details":{"ride_id":"619","user_id":"33","coupon_code":"","pickup_lat":"-33.89708879852928","pickup_long":"18.628616854548454","pickup_location":"4 Alexandra St, Oakdale, Cape Town, 7530, South Africa","drop_lat":"-33.9321045","drop_long":"18.860152","drop_location":"Stellenbosch","ride_date":"Friday, Nov 17","ride_time":"21:42:17","last_time_stamp":"09:42:17 PM","ride_image":"https:maps.googleapis.com\/maps\/api\/staticmap?center=&zoom=12&size=200x200&maptype=roadmap&markers=color:green|label:S|-33.89708879852928,18.628616854548454&markers=color:red|label:D|-33.9321045,18.860152&key=AIzaSyAIFe17P91Mfez3T6cqk7hfDSyvMO812Z4","later_date":"","later_time":"","driver_id":"0","car_type_id":"28","checkout_id":"","ride_type":"1","pem_file":"1","ride_status":"1","payment_status":"0","reason_id":"0","payment_option_id":"1","card_id":"0","ride_platform":"1","ride_admin_status":"1","date":"2017-11-17"}}
drop_lat: -33.9321045
drop_long: 18.860152
drop_location: Stellenbosch
car_type_id:28
user_id:33
coupon_code :
pickup_lat : -33.89708879852928
pickup_long : 18.628616854548454
pickup_location :4 Alexandra St, Oakdale, Cape Town, 7530, South Africa
payment_option_id :1
card_id :
pem_file :1
-------------------------
car by city api -: November 17, 2017, 9:43 pm
Response: {"result":1,"msg":"9259.85358569","details":{"ride_id":"620","user_id":"33","coupon_code":"","pickup_lat":"-33.897154197313434","pickup_long":"18.628456592559814","pickup_location":"4 Alexandra St, Oakdale, Cape Town, 7530, South Africa","drop_lat":"-33.9067916","drop_long":"18.5808115","drop_location":"Parow","ride_date":"Friday, Nov 17","ride_time":"21:43:51","last_time_stamp":"09:43:51 PM","ride_image":"https:maps.googleapis.com\/maps\/api\/staticmap?center=&zoom=12&size=200x200&maptype=roadmap&markers=color:green|label:S|-33.897154197313434,18.628456592559814&markers=color:red|label:D|-33.9067916,18.5808115&key=AIzaSyAIFe17P91Mfez3T6cqk7hfDSyvMO812Z4","later_date":"","later_time":"","driver_id":"0","car_type_id":"28","checkout_id":"","ride_type":"1","pem_file":"1","ride_status":"1","payment_status":"0","reason_id":"0","payment_option_id":"1","card_id":"0","ride_platform":"1","ride_admin_status":"1","date":"2017-11-17"}}
drop_lat: -33.9067916
drop_long: 18.5808115
drop_location: Parow
car_type_id:28
user_id:33
coupon_code :
pickup_lat : -33.897154197313434
pickup_long : 18.628456592559814
pickup_location :4 Alexandra St, Oakdale, Cape Town, 7530, South Africa
payment_option_id :1
card_id :
pem_file :1
-------------------------
car by city api -: November 17, 2017, 9:45 pm
Response: {"result":0,"msg":"No Nearest Driver"}
drop_lat: -26.092353899999996
drop_long: 28.003415500000003
drop_location: Randburg Square
car_type_id:28
user_id:33
coupon_code :
pickup_lat : -26.109322699999996
pickup_long : 28.053005
pickup_location :Sandton City
payment_option_id :1
card_id :
pem_file :1
-------------------------
car by city api -: November 17, 2017, 9:46 pm
Response: {"result":1,"msg":"9259.85131563","details":{"ride_id":"621","user_id":"33","coupon_code":"","pickup_lat":"-33.897139726097436","pickup_long":"18.62847402691841","pickup_location":"4 Alexandra St, Oakdale, Cape Town, 7530, South Africa","drop_lat":"-33.87298","drop_long":"18.634609999999995","drop_location":"Tyger Valley Centre","ride_date":"Friday, Nov 17","ride_time":"21:46:09","last_time_stamp":"09:46:09 PM","ride_image":"https:maps.googleapis.com\/maps\/api\/staticmap?center=&zoom=12&size=200x200&maptype=roadmap&markers=color:green|label:S|-33.897139726097436,18.62847402691841&markers=color:red|label:D|-33.87298,18.634609999999995&key=AIzaSyAIFe17P91Mfez3T6cqk7hfDSyvMO812Z4","later_date":"","later_time":"","driver_id":"0","car_type_id":"28","checkout_id":"","ride_type":"1","pem_file":"1","ride_status":"1","payment_status":"0","reason_id":"0","payment_option_id":"1","card_id":"0","ride_platform":"1","ride_admin_status":"1","date":"2017-11-17"}}
drop_lat: -33.87298
drop_long: 18.634609999999995
drop_location: Tyger Valley Centre
car_type_id:28
user_id:33
coupon_code :
pickup_lat : -33.897139726097436
pickup_long : 18.62847402691841
pickup_location :4 Alexandra St, Oakdale, Cape Town, 7530, South Africa
payment_option_id :1
card_id :
pem_file :1
-------------------------
