User App-view wallent Api: November 3, 2017, 7:25 am
Response: Array
User: 15
-------------------------
car by city api -: November 3, 2017, 7:26 am
Response: {"result":1,"msg":[{"car_type_id":"28","car_type_name":"Sedan","car_name_arabic":"","car_type_name_french":"Sedan","car_type_image":"uploads\/car\/editcar_28.png","cartype_image_size":"5102","ride_mode":"1","car_admin_status":"1","city_id":"121"},{"car_type_id":"32","car_type_name":"Luxury","car_name_arabic":"","car_type_name_french":" ","car_type_image":"uploads\/car\/editcar_32.png","cartype_image_size":"4349","ride_mode":"1","car_admin_status":"1","city_id":"121"},{"car_type_id":"34","car_type_name":"Van","car_name_arabic":"","car_type_name_french":"","car_type_image":"uploads\/car\/car_34.png","cartype_image_size":"6542","ride_mode":"1","car_admin_status":"1","city_id":"121"}]}
city_id: 121
-------------------------
car by city api -: November 3, 2017, 7:18 pm
Response: {"result":1,"msg":"8002.24546284","details":{"ride_id":"521","user_id":"6","coupon_code":"","pickup_lat":"-26.0607952208242","pickup_long":"28.0622868225047","pickup_location":"4A Wessel Road\nEdenburg, Sandton, 2128","drop_lat":"-26.1362912215505","drop_long":"28.071759827435","drop_location":"20 Stirling Street\nWaverley, Johannesburg, 2090","ride_date":"Friday, Nov 3","ride_time":"19:18:29","last_time_stamp":"07:18:29 PM","ride_image":"https:maps.googleapis.com\/maps\/api\/staticmap?center=&zoom=12&size=200x200&maptype=roadmap&markers=color:green|label:S|-26.0607952208242,28.0622868225047&markers=color:red|label:D|-26.1362912215505,28.071759827435&key=AIzaSyAIFe17P91Mfez3T6cqk7hfDSyvMO812Z4","later_date":"","later_time":"","driver_id":"0","car_type_id":"28","ride_type":"1","pem_file":"1","ride_status":"1","payment_status":"0","reason_id":"0","payment_option_id":"1","card_id":"0","ride_platform":"1","ride_admin_status":"1","date":"2017-11-03"}}
drop_lat: -26.1362912215505
drop_long: 28.071759827435
drop_location: 20 Stirling Street
Waverley, Johannesburg, 2090
car_type_id:28
user_id:6
coupon_code :
pickup_lat : -26.0607952208242
pickup_long : 28.0622868225047
pickup_location :4A Wessel Road
Edenburg, Sandton, 2128
payment_option_id :1
card_id :
pem_file :1
-------------------------
Ride Accept api -: November 3, 2017, 7:19 pm
Response: {"result":1,"msg":"Booking Accepted!!","details":{"ride_id":"521","user_id":"6","coupon_code":"","pickup_lat":"-26.0607952208242","pickup_long":"28.0622868225047","pickup_location":"4A Wessel Road\nEdenburg, Sandton, 2128","drop_lat":"-26.1362912215505","drop_long":"28.071759827435","drop_location":"20 Stirling Street\nWaverley, Johannesburg, 2090","ride_date":"Friday, Nov 3","ride_time":"19:18:29","last_time_stamp":"07:19:00 PM","ride_image":"https:maps.googleapis.com\/maps\/api\/staticmap?center=&zoom=12&size=200x200&maptype=roadmap&markers=color:green|label:S|-26.0607952208242,28.0622868225047&markers=color:red|label:D|-26.1362912215505,28.071759827435&key=AIzaSyAIFe17P91Mfez3T6cqk7hfDSyvMO812Z4","later_date":"","later_time":"","driver_id":"17","car_type_id":"28","ride_type":"1","pem_file":"1","ride_status":"3","payment_status":"0","reason_id":"0","payment_option_id":"1","card_id":"0","ride_platform":"1","ride_admin_status":"1","date":"2017-11-03","user_type":"1","user_name":"David Satande .","user_email":"user@tagyourride.co.za","user_phone":"+27835156147","user_password":"","user_image":"http:\/\/apporio.org\/TagYourRide\/tagyourride\/uploads\/swift_file68.jpeg","device_id":"0B479C56781FF214A0000BFD831828DE8AA9CC2EC6F7BD8D0DE0273A3E1B2174","flag":"1","wallet_money":"180","register_date":"Tuesday, Oct 3","referral_code":"","free_rides":"0","referral_code_send":"0","phone_verified":"0","email_verified":"0","password_created":"0","facebook_id":"10214919884891101","facebook_mail":"10214919884891101@facebook.com","facebook_image":"https:\/\/graph.facebook.com\/10214919884891101\/picture?width=640&height=640","facebook_firstname":"David Tatenda Satande","facebook_lastname":"","google_id":"101280090012019087408","google_name":"David Satande","google_mail":"davidtatenda@gmail.com","google_image":"https:\/\/plus.google.com\/_\/focus\/photos\/private\/AIbEiAIAAABDCLCwsffW4vLhESILdmNhcmRfcGhvdG8qKDU4ZDU3MTlhNTg2MTU1YTMyMWMzYWFkMDkyOTA4NzRkMjQyYTRiZTEwAeMxkTTWeqX0t-xZfmHbdHpH_vhC","google_token":"","facebook_token":"","token_created":"0","login_logout":"1","rating":"3.328125","user_delete":"0","unique_number":"","user_signup_type":"3","user_signup_date":"2017-09-22","status":"1","car_type_name":"Sedan","car_name_arabic":"","car_type_name_french":"Sedan","car_type_image":"uploads\/car\/editcar_28.png","cartype_image_size":"5102","ride_mode":"1","car_admin_status":"1","company_id":"0","commission":"20","driver_name":"Dave","driver_email":"dave@tagyourride.co.za","driver_phone":"0835156149","driver_image":"uploads\/driver\/1508781365driver_17.jpg","driver_password":"tatenda","driver_token":"JkzklGMF4JyWmzck","total_payment_eraned":"1372.94","company_payment":"0","driver_payment":"86","car_model_id":"45","car_number":"CW60ZCGP","car_image":"uploads\/driver\/1507046530driver_17.jpg","city_id":"121","license":"","license_expire":"","rc":"","rc_expire":"","insurance":"","insurance_expire":"","other_docs":"","driver_bank_name":"","driver_account_number":"","total_card_payment":"0.00","total_cash_payment":"0.00","amount_transfer_pending":"0.00","current_lat":"-26.0607952208242","current_long":"28.0622868225047","current_location":"4A Wessel Road , Edenburg, Sandton, 2128","last_update":"19:19","last_update_date":"Friday, Nov 3, 2017","completed_rides":"61","reject_rides":"17","cancelled_rides":"12","busy":"1","online_offline":"1","detail_status":"2","payment_transfer":"0","verification_date":"","verification_status":"1","driver_signup_date":"2017-10-03","driver_status_image":"http:\/\/www.apporiotaxi.com\/superadminpanel\/images\/icons8-Error-80.png","driver_status_message":"your document id in under process, You will be notified very soon","total_document_need":"4","driver_admin_status":"1","verfiy_document":"0"}}
ride_id: 521
driver_id: 17
driver_token: JkzklGMF4JyWmzck
-------------------------
ride start to road  Api - : November 3, 2017, 7:19 pm
ride_id :521
driver_id: 17
begin_lat: -26.0607955882728
begin_long: 28.0622860138014
driver_token: JkzklGMF4JyWmzck
-------------------------
ride end Api - : November 3, 2017, 7:27 pm
ride_id: 521
driver_id: 17
end_lat: -26.0608887413356
end_long: 28.0626500169813
meter_distance: 0.0
lat_long: 
-------------------------
