Driver App - Login driver Api: November 9, 2017, 4:29 am
Response: Array
(
    [driver_id] => 33
    [company_id] => 0
    [commission] => 20
    [driver_name] => Roger
    [driver_email] => rtshibangu@gmail.com
    [driver_phone] => 0614950420
    [driver_image] => 
    [driver_password] => 4XM466
    [driver_token] => 2EbZuTCDtqSHB6JK
    [total_payment_eraned] => 1584.56
    [company_payment] => 12
    [driver_payment] => 
    [device_id] => dkElXnjejfI:APA91bHIkB144nP-nQzmrqS-t2iTPK2X9kbWLQvvqtLUCM6rqV_rnbjVYSdIhbFD_ZpnRS02FL9VbiwUDE5H1b93ClqwIalN3yGfzbuIhGW29RsWPQLFcdfq3hGvmfRO5wmrmQ6xlVoC
    [flag] => 2
    [rating] => 2.76829268293
    [car_type_id] => 28
    [car_model_id] => 46
    [car_number] => ND658157
    [car_image] => uploads/driver/1507737659driver_33.jpg
    [city_id] => 121
    [register_date] => Wednesday, Oct 11
    [license] => 
    [license_expire] => 
    [rc] => 
    [rc_expire] => 
    [insurance] => 
    [insurance_expire] => 
    [other_docs] => 
    [driver_bank_name] => 
    [driver_account_number] => 
    [total_card_payment] => 0.00
    [total_cash_payment] => 0.00
    [amount_transfer_pending] => 0.00
    [current_lat] => -29.8374895
    [current_long] => 30.9106635
    [current_location] => ----
    [last_update] => 04:28
    [last_update_date] => Thursday, Nov 9, 2017
    [completed_rides] => 33
    [reject_rides] => 12
    [cancelled_rides] => 7
    [login_logout] => 1
    [busy] => 0
    [online_offline] => 1
    [detail_status] => 2
    [payment_transfer] => 0
    [verification_date] => 
    [verification_status] => 1
    [unique_number] => 
    [driver_signup_date] => 2017-10-11
    [driver_status_image] => http://www.apporiotaxi.com/superadminpanel/images/icons8-Error-80.png
    [driver_status_message] => your document id in under process, You will be notified very soon
    [total_document_need] => 1
    [driver_admin_status] => 1
    [verfiy_document] => 0
    [city_name] => Pietermaritzburg
    [city_latitude] => -29.6006068
    [city_longitude] => 30.3794118
    [currency] => R
    [currency_iso_code] => R
    [currency_unicode] => 0
    [distance] => Km
    [city_name_arabic] => 
    [city_name_french] => 
    [city_admin_status] => 1
    [car_type_name] => Sedan
    [car_model_name] => Ford Ranger
)

driver_email_phone: rtshibangu@gmail.com
driver_password: 4XM466
-------------------------
car by city api -: November 9, 2017, 4:30 am
Response: {"result":1,"msg":"8121.18078721","details":{"ride_id":"590","user_id":"15","coupon_code":"","pickup_lat":"-29.83615582203001","pickup_long":"30.881149135529995","pickup_location":"23 Entabeni Rd, Paradise Valley, Pinetown, 3610, South Africa","drop_lat":"-29.818456312207502","drop_long":"30.8841897547245","drop_location":"4 Travislee Pl, Cowies Hill Park, Pinetown, 3610, South Africa","ride_date":"Thursday, Nov 9","ride_time":"04:30:42","last_time_stamp":"04:30:42 AM","ride_image":"https:maps.googleapis.com\/maps\/api\/staticmap?center=&zoom=12&size=200x200&maptype=roadmap&markers=color:green|label:S|-29.83615582203001,30.881149135529995&markers=color:red|label:D|-29.818456312207502,30.8841897547245&key=AIzaSyAIFe17P91Mfez3T6cqk7hfDSyvMO812Z4","later_date":"","later_time":"","driver_id":"0","car_type_id":"28","checkout_id":"","ride_type":"1","pem_file":"1","ride_status":"1","payment_status":"0","reason_id":"0","payment_option_id":"1","card_id":"0","ride_platform":"1","ride_admin_status":"1","date":"2017-11-09"}}
drop_lat: -29.818456312207502
drop_long: 30.8841897547245
drop_location: 4 Travislee Pl, Cowies Hill Park, Pinetown, 3610, South Africa
car_type_id:28
user_id:15
coupon_code :
pickup_lat : -29.83615582203001
pickup_long : 30.881149135529995
pickup_location :23 Entabeni Rd, Paradise Valley, Pinetown, 3610, South Africa
payment_option_id :1
card_id :
pem_file :1
-------------------------
Ride Accept api -: November 9, 2017, 4:30 am
Response: {"result":1,"msg":"Booking Accepted!!","details":{"ride_id":"590","user_id":"15","coupon_code":"","pickup_lat":"-29.83615582203001","pickup_long":"30.881149135529995","pickup_location":"23 Entabeni Rd, Paradise Valley, Pinetown, 3610, South Africa","drop_lat":"-29.818456312207502","drop_long":"30.8841897547245","drop_location":"4 Travislee Pl, Cowies Hill Park, Pinetown, 3610, South Africa","ride_date":"Thursday, Nov 9","ride_time":"04:30:42","last_time_stamp":"04:30:53 AM","ride_image":"https:maps.googleapis.com\/maps\/api\/staticmap?center=&zoom=12&size=200x200&maptype=roadmap&markers=color:green|label:S|-29.83615582203001,30.881149135529995&markers=color:red|label:D|-29.818456312207502,30.8841897547245&key=AIzaSyAIFe17P91Mfez3T6cqk7hfDSyvMO812Z4","later_date":"","later_time":"","driver_id":"33","car_type_id":"28","checkout_id":"","ride_type":"1","pem_file":"1","ride_status":"3","payment_status":"0","reason_id":"0","payment_option_id":"1","card_id":"0","ride_platform":"1","ride_admin_status":"1","date":"2017-11-09","user_type":"1","user_name":"Rogerant Tshibangu .","user_email":"rtshibangu@gmail.com","user_phone":"+27614950420","user_password":"kapinga12","user_image":"","device_id":"dkElXnjejfI:APA91bHIkB144nP-nQzmrqS-t2iTPK2X9kbWLQvvqtLUCM6rqV_rnbjVYSdIhbFD_ZpnRS02FL9VbiwUDE5H1b93ClqwIalN3yGfzbuIhGW29RsWPQLFcdfq3hGvmfRO5wmrmQ6xlVoC","flag":"2","wallet_money":"0","register_date":"Wednesday, Oct 11","referral_code":"","free_rides":"0","referral_code_send":"0","phone_verified":"0","email_verified":"0","password_created":"0","facebook_id":"","facebook_mail":"","facebook_image":"","facebook_firstname":"","facebook_lastname":"","google_id":"113504333689561338454","google_name":"Rogerant Tshibangu","google_mail":"rtshibangu@gmail.com","google_image":"https:\/\/lh4.googleusercontent.com\/-IURineo7rrE\/AAAAAAAAAAI\/AAAAAAAAH_M\/DtqWr27G614\/photo.jpg","google_token":"","facebook_token":"","token_created":"0","login_logout":"1","rating":"2.76829268293","user_delete":"0","unique_number":"","user_signup_type":"1","user_signup_date":"2017-10-11","status":"1","car_type_name":"Sedan","car_name_arabic":"","car_type_name_french":"Sedan","car_type_image":"uploads\/car\/editcar_28.png","cartype_image_size":"5102","ride_mode":"1","car_admin_status":"1","company_id":"0","commission":"20","driver_name":"Roger","driver_email":"rtshibangu@gmail.com","driver_phone":"0614950420","driver_image":"","driver_password":"4XM466","driver_token":"2EbZuTCDtqSHB6JK","total_payment_eraned":"1584.56","company_payment":"12","driver_payment":"","car_model_id":"46","car_number":"ND658157","car_image":"uploads\/driver\/1507737659driver_33.jpg","city_id":"121","license":"","license_expire":"","rc":"","rc_expire":"","insurance":"","insurance_expire":"","other_docs":"","driver_bank_name":"","driver_account_number":"","total_card_payment":"0.00","total_cash_payment":"0.00","amount_transfer_pending":"0.00","current_lat":"-29.8361559","current_long":"30.8811492","current_location":"----","last_update":"04:30","last_update_date":"Thursday, Nov 9, 2017","completed_rides":"33","reject_rides":"12","cancelled_rides":"7","busy":"1","online_offline":"1","detail_status":"2","payment_transfer":"0","verification_date":"","verification_status":"1","driver_signup_date":"2017-10-11","driver_status_image":"http:\/\/www.apporiotaxi.com\/superadminpanel\/images\/icons8-Error-80.png","driver_status_message":"your document id in under process, You will be notified very soon","total_document_need":"1","driver_admin_status":"1","verfiy_document":"0"}}
ride_id: 590
driver_id: 33
driver_token: 2EbZuTCDtqSHB6JK
-------------------------
ride start to road  Api - : November 9, 2017, 4:31 am
ride_id :590
driver_id: 33
begin_lat: -29.835783
begin_long: 30.855195
driver_token: 2EbZuTCDtqSHB6JK
-------------------------
ride end Api - : November 9, 2017, 4:32 am
ride_id: 590
driver_id: 33
end_lat: -29.8302936
end_long: 30.8386021
meter_distance: 0.0
lat_long: 
-------------------------
car by city api -: November 9, 2017, 5:42 am
Response: {"result":1,"msg":"8009.11292226","details":{"ride_id":"591","user_id":"6","coupon_code":"","pickup_lat":"-26.1233176716829","pickup_long":"28.034669905901","pickup_location":"57 6th Road\nHyde Park, Sandton, 2196","drop_lat":"-26.0919777480508","drop_long":"28.0365692451596","drop_location":"54-58 13th Street\nParkmore, Sandton, 2196","ride_date":"Thursday, Nov 9","ride_time":"05:42:12","last_time_stamp":"05:42:12 AM","ride_image":"https:maps.googleapis.com\/maps\/api\/staticmap?center=&zoom=12&size=200x200&maptype=roadmap&markers=color:green|label:S|-26.1233176716829,28.034669905901&markers=color:red|label:D|-26.0919777480508,28.0365692451596&key=AIzaSyAIFe17P91Mfez3T6cqk7hfDSyvMO812Z4","later_date":"","later_time":"","driver_id":"0","car_type_id":"28","checkout_id":"","ride_type":"1","pem_file":"1","ride_status":"1","payment_status":"0","reason_id":"0","payment_option_id":"2","card_id":"0","ride_platform":"1","ride_admin_status":"1","date":"2017-11-09"}}
drop_lat: -26.0919777480508
drop_long: 28.0365692451596
drop_location: 54-58 13th Street
Parkmore, Sandton, 2196
car_type_id:28
user_id:6
coupon_code :
pickup_lat : -26.1233176716829
pickup_long : 28.034669905901
pickup_location :57 6th Road
Hyde Park, Sandton, 2196
payment_option_id :2
card_id :
pem_file :1
-------------------------
Driver App - Login driver Api: November 9, 2017, 10:03 am
Response: Array
(
    [driver_id] => 33
    [company_id] => 0
    [commission] => 20
    [driver_name] => Roger
    [driver_email] => rtshibangu@gmail.com
    [driver_phone] => 0614950420
    [driver_image] => 
    [driver_password] => DNL2F0
    [driver_token] => 1UrmS2SdiLN7mi0Q
    [total_payment_eraned] => 1600.56
    [company_payment] => 16
    [driver_payment] => 
    [device_id] => dkElXnjejfI:APA91bHIkB144nP-nQzmrqS-t2iTPK2X9kbWLQvvqtLUCM6rqV_rnbjVYSdIhbFD_ZpnRS02FL9VbiwUDE5H1b93ClqwIalN3yGfzbuIhGW29RsWPQLFcdfq3hGvmfRO5wmrmQ6xlVoC
    [flag] => 2
    [rating] => 2.82142857143
    [car_type_id] => 28
    [car_model_id] => 46
    [car_number] => ND658157
    [car_image] => uploads/driver/1507737659driver_33.jpg
    [city_id] => 121
    [register_date] => Wednesday, Oct 11
    [license] => 
    [license_expire] => 
    [rc] => 
    [rc_expire] => 
    [insurance] => 
    [insurance_expire] => 
    [other_docs] => 
    [driver_bank_name] => 
    [driver_account_number] => 
    [total_card_payment] => 0.00
    [total_cash_payment] => 0.00
    [amount_transfer_pending] => 0.00
    [current_lat] => -29.6257089
    [current_long] => 30.4032542
    [current_location] => ----
    [last_update] => 10:03
    [last_update_date] => Thursday, Nov 9, 2017
    [completed_rides] => 34
    [reject_rides] => 12
    [cancelled_rides] => 7
    [login_logout] => 1
    [busy] => 0
    [online_offline] => 1
    [detail_status] => 2
    [payment_transfer] => 0
    [verification_date] => 
    [verification_status] => 1
    [unique_number] => 
    [driver_signup_date] => 2017-10-11
    [driver_status_image] => http://www.apporiotaxi.com/superadminpanel/images/icons8-Error-80.png
    [driver_status_message] => your document id in under process, You will be notified very soon
    [total_document_need] => 1
    [driver_admin_status] => 1
    [verfiy_document] => 0
    [city_name] => Pietermaritzburg
    [city_latitude] => -29.6006068
    [city_longitude] => 30.3794118
    [currency] => R
    [currency_iso_code] => R
    [currency_unicode] => 0
    [distance] => Km
    [city_name_arabic] => 
    [city_name_french] => 
    [city_admin_status] => 1
    [car_type_name] => Sedan
    [car_model_name] => Ford Ranger
)

driver_email_phone: rtshibangu@gmail.com
driver_password: DNL2F0
-------------------------
car by city api -: November 9, 2017, 10:05 am
Response: {"result":1,"msg":"8134.43759562","details":{"ride_id":"592","user_id":"15","coupon_code":"","pickup_lat":"-29.625709490661187","pickup_long":"30.40324755012989","pickup_location":"62 Carbis Rd, Scottsville, Pietermaritzburg, 3201, South Africa","drop_lat":"-29.598206590614282","drop_long":"30.409043133258823","drop_location":"50 Ohrtmann Rd, Willowton, Pietermaritzburg, 3201, South Africa","ride_date":"Thursday, Nov 9","ride_time":"10:05:12","last_time_stamp":"10:05:12 AM","ride_image":"https:maps.googleapis.com\/maps\/api\/staticmap?center=&zoom=12&size=200x200&maptype=roadmap&markers=color:green|label:S|-29.625709490661187,30.40324755012989&markers=color:red|label:D|-29.598206590614282,30.409043133258823&key=AIzaSyAIFe17P91Mfez3T6cqk7hfDSyvMO812Z4","later_date":"","later_time":"","driver_id":"0","car_type_id":"28","checkout_id":"","ride_type":"1","pem_file":"1","ride_status":"1","payment_status":"0","reason_id":"0","payment_option_id":"1","card_id":"0","ride_platform":"1","ride_admin_status":"1","date":"2017-11-09"}}
drop_lat: -29.598206590614282
drop_long: 30.409043133258823
drop_location: 50 Ohrtmann Rd, Willowton, Pietermaritzburg, 3201, South Africa
car_type_id:28
user_id:15
coupon_code :
pickup_lat : -29.625709490661187
pickup_long : 30.40324755012989
pickup_location :62 Carbis Rd, Scottsville, Pietermaritzburg, 3201, South Africa
payment_option_id :1
card_id :
pem_file :1
-------------------------
Ride Accept api -: November 9, 2017, 10:05 am
Response: {"result":1,"msg":"Booking Accepted!!","details":{"ride_id":"592","user_id":"15","coupon_code":"","pickup_lat":"-29.625709490661187","pickup_long":"30.40324755012989","pickup_location":"62 Carbis Rd, Scottsville, Pietermaritzburg, 3201, South Africa","drop_lat":"-29.598206590614282","drop_long":"30.409043133258823","drop_location":"50 Ohrtmann Rd, Willowton, Pietermaritzburg, 3201, South Africa","ride_date":"Thursday, Nov 9","ride_time":"10:05:12","last_time_stamp":"10:05:21 AM","ride_image":"https:maps.googleapis.com\/maps\/api\/staticmap?center=&zoom=12&size=200x200&maptype=roadmap&markers=color:green|label:S|-29.625709490661187,30.40324755012989&markers=color:red|label:D|-29.598206590614282,30.409043133258823&key=AIzaSyAIFe17P91Mfez3T6cqk7hfDSyvMO812Z4","later_date":"","later_time":"","driver_id":"33","car_type_id":"28","checkout_id":"","ride_type":"1","pem_file":"1","ride_status":"3","payment_status":"0","reason_id":"0","payment_option_id":"1","card_id":"0","ride_platform":"1","ride_admin_status":"1","date":"2017-11-09","user_type":"1","user_name":"Rogerant Tshibangu .","user_email":"rtshibangu@gmail.com","user_phone":"+27614950420","user_password":"kapinga12","user_image":"","device_id":"dkElXnjejfI:APA91bHIkB144nP-nQzmrqS-t2iTPK2X9kbWLQvvqtLUCM6rqV_rnbjVYSdIhbFD_ZpnRS02FL9VbiwUDE5H1b93ClqwIalN3yGfzbuIhGW29RsWPQLFcdfq3hGvmfRO5wmrmQ6xlVoC","flag":"2","wallet_money":"0","register_date":"Wednesday, Oct 11","referral_code":"","free_rides":"0","referral_code_send":"0","phone_verified":"0","email_verified":"0","password_created":"0","facebook_id":"","facebook_mail":"","facebook_image":"","facebook_firstname":"","facebook_lastname":"","google_id":"113504333689561338454","google_name":"Rogerant Tshibangu","google_mail":"rtshibangu@gmail.com","google_image":"https:\/\/lh4.googleusercontent.com\/-IURineo7rrE\/AAAAAAAAAAI\/AAAAAAAAH_M\/DtqWr27G614\/photo.jpg","google_token":"","facebook_token":"","token_created":"0","login_logout":"1","rating":"2.82142857143","user_delete":"0","unique_number":"","user_signup_type":"1","user_signup_date":"2017-10-11","status":"1","car_type_name":"Sedan","car_name_arabic":"","car_type_name_french":"Sedan","car_type_image":"uploads\/car\/editcar_28.png","cartype_image_size":"5102","ride_mode":"1","car_admin_status":"1","company_id":"0","commission":"20","driver_name":"Roger","driver_email":"rtshibangu@gmail.com","driver_phone":"0614950420","driver_image":"","driver_password":"DNL2F0","driver_token":"1UrmS2SdiLN7mi0Q","total_payment_eraned":"1600.56","company_payment":"16","driver_payment":"","car_model_id":"46","car_number":"ND658157","car_image":"uploads\/driver\/1507737659driver_33.jpg","city_id":"121","license":"","license_expire":"","rc":"","rc_expire":"","insurance":"","insurance_expire":"","other_docs":"","driver_bank_name":"","driver_account_number":"","total_card_payment":"0.00","total_cash_payment":"0.00","amount_transfer_pending":"0.00","current_lat":"-29.625707","current_long":"30.4032396","current_location":"----","last_update":"10:05","last_update_date":"Thursday, Nov 9, 2017","completed_rides":"34","reject_rides":"12","cancelled_rides":"7","busy":"1","online_offline":"1","detail_status":"2","payment_transfer":"0","verification_date":"","verification_status":"1","driver_signup_date":"2017-10-11","driver_status_image":"http:\/\/www.apporiotaxi.com\/superadminpanel\/images\/icons8-Error-80.png","driver_status_message":"your document id in under process, You will be notified very soon","total_document_need":"1","driver_admin_status":"1","verfiy_document":"0"}}
ride_id: 592
driver_id: 33
driver_token: 1UrmS2SdiLN7mi0Q
-------------------------
ride start to road  Api - : November 9, 2017, 10:05 am
ride_id :592
driver_id: 33
begin_lat: -29.6257094
begin_long: 30.4032403
driver_token: 1UrmS2SdiLN7mi0Q
-------------------------
ride end Api - : November 9, 2017, 10:06 am
ride_id: 592
driver_id: 33
end_lat: -29.6257151
end_long: 30.4032311
meter_distance: 0.0
lat_long: 
-------------------------
car by city api -: November 9, 2017, 10:07 am
Response: {"result":1,"msg":[{"car_type_id":"28","car_type_name":"Sedan","car_name_arabic":"","car_type_name_french":"Sedan","car_type_image":"uploads\/car\/editcar_28.png","cartype_image_size":"5102","ride_mode":"1","car_admin_status":"1","city_id":"121"},{"car_type_id":"32","car_type_name":"Luxury","car_name_arabic":"","car_type_name_french":" ","car_type_image":"uploads\/car\/editcar_32.png","cartype_image_size":"4349","ride_mode":"1","car_admin_status":"1","city_id":"121"},{"car_type_id":"34","car_type_name":"Van","car_name_arabic":"","car_type_name_french":"","car_type_image":"uploads\/car\/car_34.png","cartype_image_size":"6542","ride_mode":"1","car_admin_status":"1","city_id":"121"}]}
city_id: 121
-------------------------
car by city api -: November 9, 2017, 1:54 pm
Response: {"result":1,"msg":"8099.49166793","details":{"ride_id":"593","user_id":"35","coupon_code":"","pickup_lat":"-29.72162952974259","pickup_long":"31.071184650063515","pickup_location":"1d Umhlanga Ridge Blvd, Umhlanga, 4319, South Africa","drop_lat":"-29.70449570252407","drop_long":"31.050242967903614","drop_location":"170 Sugar Cane Rd, Blackburn Estate, Blackburn, South Africa","ride_date":"Thursday, Nov 9","ride_time":"13:54:16","last_time_stamp":"01:54:16 PM","ride_image":"https:maps.googleapis.com\/maps\/api\/staticmap?center=&zoom=12&size=200x200&maptype=roadmap&markers=color:green|label:S|-29.72162952974259,31.071184650063515&markers=color:red|label:D|-29.70449570252407,31.050242967903614&key=AIzaSyAIFe17P91Mfez3T6cqk7hfDSyvMO812Z4","later_date":"","later_time":"","driver_id":"0","car_type_id":"28","checkout_id":"","ride_type":"1","pem_file":"1","ride_status":"1","payment_status":"0","reason_id":"0","payment_option_id":"2","card_id":"0","ride_platform":"1","ride_admin_status":"1","date":"2017-11-09"}}
drop_lat: -29.70449570252407
drop_long: 31.050242967903614
drop_location: 170 Sugar Cane Rd, Blackburn Estate, Blackburn, South Africa
car_type_id:28
user_id:35
coupon_code :
pickup_lat : -29.72162952974259
pickup_long : 31.071184650063515
pickup_location :1d Umhlanga Ridge Blvd, Umhlanga, 4319, South Africa
payment_option_id :2
card_id :
pem_file :1
-------------------------
