car by city api -: November 13, 2017, 6:40 am
Response: {"result":0,"msg":"No Nearest Driver"}
drop_lat: -33.92050253104291
drop_long: 18.58679685741663
drop_location: 33 Glenhurst St, Beaconvale, Cape Town, 7500, South Africa
car_type_id:28
user_id:33
coupon_code :
pickup_lat : -33.921083444845976
pickup_long : 18.585704527795315
pickup_location :34 Selsdon St, Beaconvale, Cape Town, 7500, South Africa
payment_option_id :1
card_id :
pem_file :1
-------------------------
car by city api -: November 13, 2017, 6:40 am
Response: {"result":1,"msg":"9264.57632894","details":{"ride_id":"603","user_id":"33","coupon_code":"","pickup_lat":"-33.92108567056174","pickup_long":"18.585708551108837","pickup_location":"34 Selsdon St, Beaconvale, Cape Town, 7500, South Africa","drop_lat":"","drop_long":"","drop_location":"Set your drop point","ride_date":"Monday, Nov 13","ride_time":"06:40:38","last_time_stamp":"06:40:38 AM","ride_image":"https:maps.googleapis.com\/maps\/api\/staticmap?center=&zoom=12&size=200x200&maptype=roadmap&markers=color:green|label:S|-33.92108567056174,18.585708551108837&markers=color:red|label:D|,&key=AIzaSyAIFe17P91Mfez3T6cqk7hfDSyvMO812Z4","later_date":"","later_time":"","driver_id":"0","car_type_id":"28","checkout_id":"","ride_type":"1","pem_file":"1","ride_status":"1","payment_status":"0","reason_id":"0","payment_option_id":"1","card_id":"0","ride_platform":"1","ride_admin_status":"1","date":"2017-11-13"}}
drop_lat: 
drop_long: 
drop_location: Set your drop point
car_type_id:28
user_id:33
coupon_code :
pickup_lat : -33.92108567056174
pickup_long : 18.585708551108837
pickup_location :34 Selsdon St, Beaconvale, Cape Town, 7500, South Africa
payment_option_id :1
card_id :
pem_file :1
-------------------------
Ride Accept api -: November 13, 2017, 6:40 am
Response: {"result":1,"msg":"Booking Accepted!!","details":{"ride_id":"603","user_id":"33","coupon_code":"","pickup_lat":"-33.92108567056174","pickup_long":"18.585708551108837","pickup_location":"34 Selsdon St, Beaconvale, Cape Town, 7500, South Africa","drop_lat":"","drop_long":"","drop_location":"Set your drop point","ride_date":"Monday, Nov 13","ride_time":"06:40:38","last_time_stamp":"06:40:43 AM","ride_image":"https:maps.googleapis.com\/maps\/api\/staticmap?center=&zoom=12&size=200x200&maptype=roadmap&markers=color:green|label:S|-33.92108567056174,18.585708551108837&markers=color:red|label:D|,&key=AIzaSyAIFe17P91Mfez3T6cqk7hfDSyvMO812Z4","later_date":"","later_time":"","driver_id":"34","car_type_id":"28","checkout_id":"","ride_type":"1","pem_file":"1","ride_status":"3","payment_status":"0","reason_id":"0","payment_option_id":"1","card_id":"0","ride_platform":"1","ride_admin_status":"1","date":"2017-11-13","user_type":"1","user_name":"dred .","user_email":"dredarsenic@gmail.com","user_phone":"+270736721260","user_password":"DRE988$d","user_image":"http:\/\/apporio.org\/TagYourRide\/tagyourride\/uploads\/1509995148230.jpg","device_id":"fPnxcH1QLtA:APA91bGcW6SOhbH-cYBzzlkNKFDSvExYQk6_lLqgGELf3oyTypL-DVP30a5j6P8BqmZpJTRr0oS3RE8afgYHdqmr6ZUojZNrp3BnPVX16c5IyBVoLioc8O8iM7--ojQIkEMmdP2WPP-J","flag":"2","wallet_money":"0.00","register_date":"Wednesday, Oct 11","referral_code":"","free_rides":"0","referral_code_send":"0","phone_verified":"0","email_verified":"0","password_created":"0","facebook_id":"","facebook_mail":"","facebook_image":"","facebook_firstname":"","facebook_lastname":"","google_id":"","google_name":"","google_mail":"","google_image":"","google_token":"","facebook_token":"","token_created":"0","login_logout":"1","rating":"1.828125","user_delete":"0","unique_number":"","user_signup_type":"1","user_signup_date":"2017-10-23","status":"1","car_type_name":"Sedan","car_name_arabic":"","car_type_name_french":"Sedan","car_type_image":"uploads\/car\/editcar_28.png","cartype_image_size":"5102","ride_mode":"1","car_admin_status":"1","company_id":"0","commission":"20","driver_name":"La Dredure","driver_email":"dredarsenic@gmail.com","driver_phone":"0736721260","driver_image":"uploads\/driver\/1508853009driver_34.jpg","driver_password":"DRE988$d","driver_token":"J64XNTwhrGkkAF3s","total_payment_eraned":"1104.4","company_payment":"40.08","driver_payment":"32.56","car_model_id":"45","car_number":"FZ 08 SS GP","car_image":"uploads\/driver\/1507737781driver_34.jpg","city_id":"121","license":"","license_expire":"","rc":"","rc_expire":"","insurance":"","insurance_expire":"","other_docs":"","driver_bank_name":"","driver_account_number":"","total_card_payment":"0.00","total_cash_payment":"0.00","amount_transfer_pending":"0.00","current_lat":"-33.9209844","current_long":"18.5856102","current_location":"----","last_update":"06:40","last_update_date":"Monday, Nov 13, 2017","completed_rides":"30","reject_rides":"7","cancelled_rides":"10","busy":"1","online_offline":"1","detail_status":"2","payment_transfer":"0","verification_date":"","verification_status":"1","driver_signup_date":"2017-10-11","driver_status_image":"http:\/\/www.apporiotaxi.com\/superadminpanel\/images\/icons8-Error-80.png","driver_status_message":"your document id in under process, You will be notified very soon","total_document_need":"1","driver_admin_status":"1","verfiy_document":"0"}}
ride_id: 603
driver_id: 34
driver_token: J64XNTwhrGkkAF3s
-------------------------
car by city api -: November 13, 2017, 6:41 am
Response: {"result":1,"msg":"Drop Location Change!!","details":{"ride_id":"603","user_id":"33","coupon_code":"","pickup_lat":"-33.92108567056174","pickup_long":"18.585708551108837","pickup_location":"34 Selsdon St, Beaconvale, Cape Town, 7500, South Africa","drop_lat":"-34.037444","drop_long":"18.676945099999994","drop_location":"Khayelitsha","ride_date":"Monday, Nov 13","ride_time":"06:40:38","last_time_stamp":"06:41:04 AM","ride_image":"https:maps.googleapis.com\/maps\/api\/staticmap?center=&zoom=12&size=200x200&maptype=roadmap&markers=color:green|label:S|-33.92108567056174,18.585708551108837&markers=color:red|label:D|,&key=AIzaSyAIFe17P91Mfez3T6cqk7hfDSyvMO812Z4","later_date":"","later_time":"","driver_id":"34","car_type_id":"28","checkout_id":"","ride_type":"1","pem_file":"1","ride_status":"5","payment_status":"0","reason_id":"0","payment_option_id":"1","card_id":"0","ride_platform":"1","ride_admin_status":"1","date":"2017-11-13","user_type":"1","user_name":"dred .","user_email":"dredarsenic@gmail.com","user_phone":"+270736721260","user_password":"DRE988$d","user_image":"http:\/\/apporio.org\/TagYourRide\/tagyourride\/uploads\/1509995148230.jpg","device_id":"","flag":"0","wallet_money":"0.00","register_date":"Monday, Oct 23","referral_code":"","free_rides":"0","referral_code_send":"0","phone_verified":"0","email_verified":"0","password_created":"0","facebook_id":"","facebook_mail":"","facebook_image":"","facebook_firstname":"","facebook_lastname":"","google_id":"","google_name":"","google_mail":"","google_image":"","google_token":"","facebook_token":"","token_created":"0","login_logout":"1","rating":"3.51851851852","user_delete":"0","unique_number":"","user_signup_type":"1","user_signup_date":"2017-10-23","status":"1"}}
drop_lat: -34.037444
drop_long: 18.676945099999994
drop_location: Khayelitsha
app_id: 2
ride_id: 603
-------------------------
ride start to road  Api - : November 13, 2017, 6:41 am
ride_id :603
driver_id: 34
begin_lat: -33.9210469
begin_long: 18.5854109
driver_token: J64XNTwhrGkkAF3s
-------------------------
ride end Api - : November 13, 2017, 6:41 am
ride_id: 603
driver_id: 34
end_lat: -33.9210685
end_long: 18.5854589
meter_distance: 0.0
lat_long: 
-------------------------
car by city api -: November 13, 2017, 6:53 am
Response: {"result":1,"msg":"7958.55002405","details":{"ride_id":"604","user_id":"6","coupon_code":"","pickup_lat":"-25.7562776978525","pickup_long":"28.340310305357","pickup_location":"877 Libertas Avenue\nEquestria, Pretoria, 0184","drop_lat":"-25.7728118","drop_long":"28.2335863","drop_location":"337 Veale St","ride_date":"Monday, Nov 13","ride_time":"06:53:32","last_time_stamp":"06:53:32 AM","ride_image":"https:maps.googleapis.com\/maps\/api\/staticmap?center=&zoom=12&size=200x200&maptype=roadmap&markers=color:green|label:S|-25.7562776978525,28.340310305357&markers=color:red|label:D|-25.7728118,28.2335863&key=AIzaSyAIFe17P91Mfez3T6cqk7hfDSyvMO812Z4","later_date":"","later_time":"","driver_id":"0","car_type_id":"28","checkout_id":"","ride_type":"1","pem_file":"1","ride_status":"1","payment_status":"0","reason_id":"0","payment_option_id":"1","card_id":"0","ride_platform":"1","ride_admin_status":"1","date":"2017-11-13"}}
drop_lat: -25.7728118
drop_long: 28.2335863
drop_location: 337 Veale St
car_type_id:28
user_id:6
coupon_code :
pickup_lat : -25.7562776978525
pickup_long : 28.340310305357
pickup_location :877 Libertas Avenue
Equestria, Pretoria, 0184
payment_option_id :1
card_id :
pem_file :1
-------------------------
Ride Accept api -: November 13, 2017, 6:53 am
Response: {"result":1,"msg":"Booking Accepted!!","details":{"ride_id":"604","user_id":"6","coupon_code":"","pickup_lat":"-25.7562776978525","pickup_long":"28.340310305357","pickup_location":"877 Libertas Avenue\nEquestria, Pretoria, 0184","drop_lat":"-25.7728118","drop_long":"28.2335863","drop_location":"337 Veale St","ride_date":"Monday, Nov 13","ride_time":"06:53:32","last_time_stamp":"06:53:53 AM","ride_image":"https:maps.googleapis.com\/maps\/api\/staticmap?center=&zoom=12&size=200x200&maptype=roadmap&markers=color:green|label:S|-25.7562776978525,28.340310305357&markers=color:red|label:D|-25.7728118,28.2335863&key=AIzaSyAIFe17P91Mfez3T6cqk7hfDSyvMO812Z4","later_date":"","later_time":"","driver_id":"73","car_type_id":"28","checkout_id":"","ride_type":"1","pem_file":"1","ride_status":"3","payment_status":"0","reason_id":"0","payment_option_id":"1","card_id":"0","ride_platform":"1","ride_admin_status":"1","date":"2017-11-13","user_type":"1","user_name":"David Satande .","user_email":"user@tagyourride.co.za","user_phone":"+27835156147","user_password":"","user_image":"http:\/\/apporio.org\/TagYourRide\/tagyourride\/uploads\/swift_file68.jpeg","device_id":"0B479C56781FF214A0000BFD831828DE8AA9CC2EC6F7BD8D0DE0273A3E1B2174","flag":"1","wallet_money":"81","register_date":"Wednesday, Oct 25","referral_code":"","free_rides":"0","referral_code_send":"0","phone_verified":"0","email_verified":"0","password_created":"0","facebook_id":"10214919884891101","facebook_mail":"10214919884891101@facebook.com","facebook_image":"https:\/\/graph.facebook.com\/10214919884891101\/picture?width=640&height=640","facebook_firstname":"David Tatenda Satande","facebook_lastname":"","google_id":"101280090012019087408","google_name":"David Satande","google_mail":"davidtatenda@gmail.com","google_image":"https:\/\/plus.google.com\/_\/focus\/photos\/private\/AIbEiAIAAABDCLCwsffW4vLhESILdmNhcmRfcGhvdG8qKDU4ZDU3MTlhNTg2MTU1YTMyMWMzYWFkMDkyOTA4NzRkMjQyYTRiZTEwAeMxkTTWeqX0t-xZfmHbdHpH_vhC","google_token":"","facebook_token":"","token_created":"0","login_logout":"1","rating":"2.22222222222","user_delete":"0","unique_number":"","user_signup_type":"3","user_signup_date":"2017-09-22","status":"1","car_type_name":"Sedan","car_name_arabic":"","car_type_name_french":"Sedan","car_type_image":"uploads\/car\/editcar_28.png","cartype_image_size":"5102","ride_mode":"1","car_admin_status":"1","company_id":"0","commission":"20","driver_name":"Mambo","driver_email":"mambo@tagyourride.co.za","driver_phone":"0789654125","driver_image":"uploads\/driver\/1509211624driver_73.jpg","driver_password":"tatenda","driver_token":"xIkrfShIiLmLGgME","total_payment_eraned":"213.38","company_payment":"-28","driver_payment":"32","car_model_id":"45","car_number":"PMB1234","car_image":"uploads\/driver\/1508955926driver_73.jpg","city_id":"121","license":"","license_expire":"","rc":"","rc_expire":"","insurance":"","insurance_expire":"","other_docs":"","driver_bank_name":"","driver_account_number":"","total_card_payment":"0.00","total_cash_payment":"0.00","amount_transfer_pending":"0.00","current_lat":"-25.7574829774027","current_long":"28.3395025699714","current_location":"931 Libertas Avenue , Equestria, Pretoria, 0184","last_update":"06:53","last_update_date":"Monday, Nov 13, 2017","completed_rides":"10","reject_rides":"1","cancelled_rides":"1","busy":"1","online_offline":"1","detail_status":"2","payment_transfer":"0","verification_date":"2017-10-25","verification_status":"1","driver_signup_date":"2017-10-25","driver_status_image":"http:\/\/www.apporiotaxi.com\/superadminpanel\/images\/icons8-Error-80.png","driver_status_message":"Your documents are under process.You will be notified soon.","total_document_need":"1","driver_admin_status":"1","verfiy_document":"1"}}
ride_id: 604
driver_id: 73
driver_token: xIkrfShIiLmLGgME
-------------------------
ride start to road  Api - : November 13, 2017, 6:55 am
ride_id :604
driver_id: 73
begin_lat: -25.7572798244895
begin_long: 28.3396279346462
driver_token: xIkrfShIiLmLGgME
-------------------------
ride end Api - : November 13, 2017, 6:56 am
ride_id: 604
driver_id: 73
end_lat: -25.7572046370759
end_long: 28.3395673928748
meter_distance: 0.0
lat_long: 
-------------------------
car by city api -: November 13, 2017, 10:23 am
Response: {"result":1,"msg":"8134.23017714","details":{"ride_id":"605","user_id":"15","coupon_code":"","pickup_lat":"-29.597260584062173","pickup_long":"30.370036438107494","pickup_location":"157 Victoria Rd, Pietermaritzburg, 3201, South Africa","drop_lat":"-29.582215118042583","drop_long":"30.382233113050464","drop_location":"115 Melsetter Rd, Woodlands, Pietermaritzburg, 3201, South Africa","ride_date":"Monday, Nov 13","ride_time":"10:23:09","last_time_stamp":"10:23:09 AM","ride_image":"https:maps.googleapis.com\/maps\/api\/staticmap?center=&zoom=12&size=200x200&maptype=roadmap&markers=color:green|label:S|-29.597260584062173,30.370036438107494&markers=color:red|label:D|-29.582215118042583,30.382233113050464&key=AIzaSyAIFe17P91Mfez3T6cqk7hfDSyvMO812Z4","later_date":"","later_time":"","driver_id":"0","car_type_id":"28","checkout_id":"","ride_type":"1","pem_file":"1","ride_status":"1","payment_status":"0","reason_id":"0","payment_option_id":"1","card_id":"0","ride_platform":"1","ride_admin_status":"1","date":"2017-11-13"}}
drop_lat: -29.582215118042583
drop_long: 30.382233113050464
drop_location: 115 Melsetter Rd, Woodlands, Pietermaritzburg, 3201, South Africa
car_type_id:28
user_id:15
coupon_code :
pickup_lat : -29.597260584062173
pickup_long : 30.370036438107494
pickup_location :157 Victoria Rd, Pietermaritzburg, 3201, South Africa
payment_option_id :1
card_id :
pem_file :1
-------------------------
Ride Accept api -: November 13, 2017, 10:23 am
Response: {"result":1,"msg":"Booking Accepted!!","details":{"ride_id":"605","user_id":"15","coupon_code":"","pickup_lat":"-29.597260584062173","pickup_long":"30.370036438107494","pickup_location":"157 Victoria Rd, Pietermaritzburg, 3201, South Africa","drop_lat":"-29.582215118042583","drop_long":"30.382233113050464","drop_location":"115 Melsetter Rd, Woodlands, Pietermaritzburg, 3201, South Africa","ride_date":"Monday, Nov 13","ride_time":"10:23:09","last_time_stamp":"10:23:18 AM","ride_image":"https:maps.googleapis.com\/maps\/api\/staticmap?center=&zoom=12&size=200x200&maptype=roadmap&markers=color:green|label:S|-29.597260584062173,30.370036438107494&markers=color:red|label:D|-29.582215118042583,30.382233113050464&key=AIzaSyAIFe17P91Mfez3T6cqk7hfDSyvMO812Z4","later_date":"","later_time":"","driver_id":"33","car_type_id":"28","checkout_id":"","ride_type":"1","pem_file":"1","ride_status":"3","payment_status":"0","reason_id":"0","payment_option_id":"1","card_id":"0","ride_platform":"1","ride_admin_status":"1","date":"2017-11-13","user_type":"1","user_name":"Rogerant Tshibangu .","user_email":"rtshibangu@gmail.com","user_phone":"+27614950420","user_password":"kapinga12","user_image":"","device_id":"dkElXnjejfI:APA91bHIkB144nP-nQzmrqS-t2iTPK2X9kbWLQvvqtLUCM6rqV_rnbjVYSdIhbFD_ZpnRS02FL9VbiwUDE5H1b93ClqwIalN3yGfzbuIhGW29RsWPQLFcdfq3hGvmfRO5wmrmQ6xlVoC","flag":"2","wallet_money":"0","register_date":"Wednesday, Oct 11","referral_code":"","free_rides":"0","referral_code_send":"0","phone_verified":"0","email_verified":"0","password_created":"0","facebook_id":"","facebook_mail":"","facebook_image":"","facebook_firstname":"","facebook_lastname":"","google_id":"113504333689561338454","google_name":"Rogerant Tshibangu","google_mail":"rtshibangu@gmail.com","google_image":"https:\/\/lh4.googleusercontent.com\/-IURineo7rrE\/AAAAAAAAAAI\/AAAAAAAAH_M\/DtqWr27G614\/photo.jpg","google_token":"","facebook_token":"","token_created":"0","login_logout":"1","rating":"2.90217391304","user_delete":"0","unique_number":"","user_signup_type":"1","user_signup_date":"2017-10-11","status":"1","car_type_name":"Sedan","car_name_arabic":"","car_type_name_french":"Sedan","car_type_image":"uploads\/car\/editcar_28.png","cartype_image_size":"5102","ride_mode":"1","car_admin_status":"1","company_id":"0","commission":"20","driver_name":"Roger","driver_email":"rtshibangu@gmail.com","driver_phone":"0614950420","driver_image":"","driver_password":"DNL2F0","driver_token":"wEz3rQ50MydKv78K","total_payment_eraned":"1651.36","company_payment":"28.7","driver_payment":"0","car_model_id":"46","car_number":"ND658157","car_image":"uploads\/driver\/1507737659driver_33.jpg","city_id":"121","license":"","license_expire":"","rc":"","rc_expire":"","insurance":"","insurance_expire":"","other_docs":"","driver_bank_name":"","driver_account_number":"","total_card_payment":"0.00","total_cash_payment":"0.00","amount_transfer_pending":"0.00","current_lat":"-29.597294","current_long":"30.3700371","current_location":"----","last_update":"10:23","last_update_date":"Monday, Nov 13, 2017","completed_rides":"37","reject_rides":"12","cancelled_rides":"7","busy":"1","online_offline":"1","detail_status":"2","payment_transfer":"0","verification_date":"","verification_status":"1","driver_signup_date":"2017-10-11","driver_status_image":"http:\/\/www.apporiotaxi.com\/superadminpanel\/images\/icons8-Error-80.png","driver_status_message":"your document id in under process, You will be notified very soon","total_document_need":"1","driver_admin_status":"1","verfiy_document":"0"}}
ride_id: 605
driver_id: 33
driver_token: wEz3rQ50MydKv78K
-------------------------
