snap to road  Api - : November 8, 2017, 5:10 pm
ride_id :589
start: -33.8703084688,18.578949347
finish: -33.8951379,18.629579
lat_long_from_application :-33.8711694,18.5785063|-33.8885718,18.6194595|-33.8862464,18.6342763|-33.8909726,18.6321174
waypoints: -33.8711273771,18.5784681036|-33.8886344625,18.6194658618|-33.8878873,18.6290766|-33.8909761822,18.6321217009
Snaptoroad api input: -33.8703194,18.5789051|-33.8711694,18.5785063|-33.8885718,18.6194595|-33.8862464,18.6342763|-33.8909726,18.6321174|-33.8970712,18.6288105
Snaptoroad api output: -33.8703084688,18.578949347|-33.8711273771,18.5784681036|-33.8886344625,18.6194658618|-33.8878873,18.6290766|-33.8909761822,18.6321217009|-33.8951379,18.629579
distnce: 7956
-------------------------
