snap to road  Api - : September 24, 2017, 4:19 pm
ride_id :26
start: 
finish: 
lat_long_from_application :-26.0603417061494,28.0619081552062|-26.05940866172,28.0618600980757|-26.0584275185865,28.0618084162767|-26.0575238705135,28.0617608165366|-26.0565977158527,28.0617120803487|-26.0556803159826,28.0616621673719|-26.0547578385987,28.0616116672676|
waypoints: 
Snaptoroad api input: -26.0610899515693,28.0624047015124|-26.0603417061494,28.0619081552062|-26.05940866172,28.0618600980757|-26.0584275185865,28.0618084162767|-26.0575238705135,28.0617608165366|-26.0565977158527,28.0617120803487|-26.0556803159826,28.0616621673719|-26.0547578385987,28.0616116672676||-26.0541809125658,28.0615791908079
Snaptoroad api output: 
distnce: 0
-------------------------
